verilog/traffic_waveform.vcd
$date
	Tue Jul 16 10:26:06 2024
$end
$version
	Icarus Verilog
$end
$timescale
	100ms
$end
$scope module traffic_light_controller_tb $end
$var wire 3 ! state [2:0] $end
$var wire 12 " lights [11:0] $end
$var wire 6 # counter [5:0] $end
$var wire 1 $ HW2_Y $end
$var wire 1 % HW2_R $end
$var wire 1 & HW2_GS $end
$var wire 1 ' HW2_GL $end
$var wire 1 ( HW1_Y $end
$var wire 1 ) HW1_R $end
$var wire 1 * HW1_GS $end
$var wire 1 + HW1_GR $end
$var wire 1 , CR_Y $end
$var wire 1 - CR_R $end
$var wire 1 . CR_GR $end
$var wire 1 / CR_GL $end
$var reg 1 0 CR_vehicle_detect $end
$var reg 1 1 clk $end
$var reg 1 2 rst $end
$upscope $end
$enddefinitions $end
$comment Show the parameter values. $end
$dumpall
$end
#0
$dumpvars
12
11
00
0/
0.
1-
0,
0+
1*
1)
0(
1'
1&
0%
0$
b0 #
b101000111000 "
b0 !
$end
#5
01
#10
11
#15
01
#20
11
#25
01
#30
11
#35
01
#40
11
#45
01
#50
b1 #
11
02
#55
01
#60
b10 #
11
#65
01
#70
b11 #
11
#75
01
#80
b100 #
11
#85
01
#90
b101 #
11
#95
01
#100
b110 #
11
#105
01
#110
b111 #
11
#115
01
#120
b1000 #
11
#125
01
#130
b1001 #
11
#135
01
#140
b1010 #
11
#145
01
#150
b1011 #
11
#155
01
#160
b1100 #
11
#165
01
#170
b1101 #
11
#175
01
#180
b1110 #
11
#185
01
#190
b1111 #
11
#195
01
#200
b10000 #
11
#205
01
#210
b10001 #
11
#215
01
#220
b10010 #
11
#225
01
#230
b10011 #
11
#235
01
#240
b10100 #
11
#245
01
#250
b10101 #
11
#255
01
#260
b10110 #
11
#265
01
#270
b10111 #
11
#275
01
#280
b11000 #
11
#285
01
#290
b11001 #
11
#295
01
#300
b11010 #
11
#305
01
#310
b11011 #
11
#315
01
#320
b11100 #
11
#325
01
#330
b11101 #
11
#335
01
#340
b11110 #
11
#345
01
#350
b11111 #
11
#355
01
#360
b100000 #
11
#365
01
#370
b100001 #
11
#375
01
#380
b100010 #
11
#385
01
#390
b100011 #
11
#395
01
#400
b100100 #
11
#405
01
#410
b100101 #
11
#415
01
#420
b100110 #
11
#425
01
#430
b100111 #
11
#435
01
#440
b101000 #
11
#445
01
#450
b101001 #
11
#455
01
#460
b101010 #
11
#465
01
#470
b101011 #
11
#475
01
#480
b101100 #
11
#485
01
#490
b101101 #
11
#495
01
#500
b101110 #
11
#505
01
#510
b101111 #
11
#515
01
#520
b110000 #
11
#525
01
#530
b110001 #
11
#535
01
#540
b110010 #
11
#545
01
#550
b110011 #
11
#555
01
#560
b110100 #
11
#565
01
#570
b110101 #
11
#575
01
#580
b110110 #
11
#585
01
#590
b110111 #
11
#595
01
#600
b111000 #
11
#605
01
#610
b111001 #
11
#615
01
#620
b111010 #
11
#625
01
#630
b111011 #
11
#635
01
#640
b111100 #
11
#645
01
#650
b111101 #
11
#655
01
#660
b111110 #
11
#665
01
#670
b111111 #
11
#675
01
#680
0)
1(
1$
0&
0'
b11001001000 "
b110 !
b0 #
11
#685
01
#690
b1 #
11
#695
01
#700
b10 #
11
#705
01
#710
b11 #
11
#715
01
#720
0(
1+
1%
0$
1/
b1110001010 "
b100 !
b0 #
11
#725
01
#730
b1 #
11
#735
01
#740
b10 #
11
#745
01
#750
b11 #
11
#755
01
#760
b100 #
11
#765
01
#770
b101 #
11
#775
01
#780
b110 #
11
#785
01
#790
b111 #
11
#795
01
#800
b1000 #
11
#805
01
#810
b1001 #
11
#815
01
#820
b1010 #
11
#825
01
#830
b1011 #
11
#835
01
#840
b1100 #
11
#845
01
#850
b1101 #
11
#855
01
#860
b1110 #
11
#865
01
#870
b1111 #
11
#875
01
#880
b10000 #
11
10
#885
01
#890
b10001 #
11
#895
01
#900
b10010 #
11
#905
01
#910
b10011 #
11
#915
01
#920
1)
0*
0+
0-
1,
b100010000110 "
b101 !
b0 #
11
#925
01
#930
b1 #
11
#935
01
#940
b10 #
11
#945
01
#950
b11 #
11
#955
01
#960
1*
0%
1&
1'
1-
0,
0/
b101000111000 "
b0 !
b0 #
11
#965
01
#970
b1 #
11
#975
01
#980
b10 #
11
#985
01
#990
b11 #
11
#995
01
#1000
b100 #
11
#1005
01
#1010
b101 #
11
#1015
01
#1020
b110 #
11
#1025
01
#1030
b111 #
11
#1035
01
#1040
b1000 #
11
#1045
01
#1050
b1001 #
11
#1055
01
#1060
b1010 #
11
#1065
01
#1070
b1011 #
11
#1075
01
#1080
b1100 #
11
#1085
01
#1090
b1101 #
11
#1095
01
#1100
b1110 #
11
#1105
01
#1110
b1111 #
11
#1115
01
#1120
b10000 #
11
#1125
01
#1130
b10001 #
11
#1135
01
#1140
b10010 #
11
#1145
01
#1150
b10011 #
11
#1155
01
#1160
b10100 #
11
#1165
01
#1170
b10101 #
11
#1175
01
#1180
b10110 #
11
#1185
01
#1190
b10111 #
11
#1195
01
#1200
b11000 #
11
#1205
01
#1210
b11001 #
11
#1215
01
#1220
b11010 #
11
#1225
01
#1230
b11011 #
11
#1235
01
#1240
b11100 #
11
#1245
01
#1250
b11101 #
11
#1255
01
#1260
b11110 #
11
#1265
01
#1270
b11111 #
11
#1275
01
#1280
b100000 #
11
#1285
01
#1290
b100001 #
11
#1295
01
#1300
b100010 #
11
#1305
01
#1310
b100011 #
11
#1315
01
#1320
b100100 #
11
#1325
01
#1330
b100101 #
11
#1335
01
#1340
b100110 #
11
#1345
01
#1350
b100111 #
11
#1355
01
#1360
b101000 #
11
#1365
01
#1370
b101001 #
11
#1375
01
#1380
b101010 #
11
#1385
01
#1390
b101011 #
11
#1395
01
#1400
b101100 #
11
#1405
01
#1410
b101101 #
11
#1415
01
#1420
b101110 #
11
#1425
01
#1430
b101111 #
11
#1435
01
#1440
b110000 #
11
#1445
01
#1450
b110001 #
11
#1455
01
#1460
b110010 #
11
#1465
01
#1470
b110011 #
11
#1475
01
#1480
b110100 #
11
#1485
01
#1490
b110101 #
11
#1495
01
#1500
b110110 #
11
#1505
01
#1510
b110111 #
11
#1515
01
#1520
b111000 #
11
#1525
01
#1530
b111001 #
11
#1535
01
#1540
b111010 #
11
#1545
01
#1550
b111011 #
11
#1555
01
#1560
b111100 #
11
#1565
01
#1570
b111101 #
11
#1575
01
#1580
b111110 #
11
#1585
01
#1590
b111111 #
11
#1595
01
#1600
0)
1(
0*
1$
0&
b10001011000 "
b1 !
b0 #
11
#1605
01
#1610
b1 #
11
#1615
01
#1620
b10 #
11
#1625
01
#1630
b11 #
11
#1635
01
#1640
1)
0(
1%
0$
0-
1/
1.
b100010010011 "
b10 !
b0 #
11
#1645
01
#1650
b1 #
11
#1655
01
#1660
b10 #
11
#1665
01
#1670
b11 #
11
#1675
01
#1680
b100 #
11
#1685
01
#1690
b101 #
11
#1695
01
#1700
b110 #
11
#1705
01
#1710
b111 #
11
#1715
01
#1720
b1000 #
11
#1725
01
#1730
b1001 #
11
#1735
01
#1740
b1010 #
11
#1745
01
#1750
b1011 #
11
#1755
01
#1760
b1100 #
11
#1765
01
#1770
b1101 #
11
#1775
01
#1780
b1110 #
11
#1785
01
#1790
b1111 #
11
#1795
01
#1800
0%
1$
1,
0/
0.
b100001010100 "
b11 !
b0 #
11
00
#1805
01
#1810
b1 #
11
#1815
01
#1820
b10 #
11
#1825
01
#1830
b11 #
11
#1835
01
#1840
0)
1*
1+
1%
0$
0'
1-
0,
1/
b1110001010 "
b100 !
b0 #
11
#1845
01
#1850
b1 #
11
#1855
01
#1860
b10 #
11
#1865
01
#1870
b11 #
11
#1875
01
#1880
b100 #
11
#1885
01
#1890
b101 #
11
#1895
01
#1900
b110 #
11
#1905
01
#1910
b111 #
11
#1915
01
#1920
b1000 #
11
#1925
01
#1930
b1001 #
11
#1935
01
#1940
b1010 #
11
#1945
01
#1950
b1011 #
11
#1955
01
#1960
b1100 #
11
#1965
01
#1970
b1101 #
11
#1975
01
#1980
b1110 #
11
#1985
01
#1990
b1111 #
11
#1995
01
#2000
b10000 #
11
#2005
01
#2010
b10001 #
11
#2015
01
#2020
b10010 #
11
#2025
01
#2030
b10011 #
11
#2035
01
#2040
1)
0*
0+
0-
1,
b100010000110 "
b101 !
b0 #
11
#2045
01
#2050
b1 #
11
#2055
01
#2060
b10 #
11
#2065
01
#2070
b11 #
11
#2075
01
#2080
1*
0%
1&
1'
1-
0,
0/
b101000111000 "
b0 !
b0 #
11
#2085
01
#2090
b1 #
11
#2095
01
#2100
b10 #
11
#2105
01
#2110
b11 #
11
#2115
01
#2120
b100 #
11
#2125
01
#2130
b101 #
11
#2135
01
#2140
b110 #
11
#2145
01
#2150
b111 #
11
#2155
01
#2160
b1000 #
11
#2165
01
#2170
b1001 #
11
#2175
01
#2180
b1010 #
11
#2185
01
#2190
b1011 #
11
#2195
01
#2200
b1100 #
11
#2205
01
#2210
b1101 #
11
#2215
01
#2220
b1110 #
11
#2225
01
#2230
b1111 #
11
#2235
01
#2240
b10000 #
11
#2245
01
#2250
b10001 #
11
